^C:\USERS\RGAMER\DOCUMENTS\GITHUB\GRAFICASCOMPUTACIONALES2\TERRENOSKYBILLMODGC2\V1DX11RR\BILLBOARD.HLSL
C:\PROGRAM FILES (X86)\WINDOWS KITS\10\BIN\10.0.19041.0\X86\FXC.EXE
^C:\USERS\RGAMER\DOCUMENTS\GITHUB\GRAFICASCOMPUTACIONALES2\TERRENOSKYBILLMODGC2\V1DX11RR\MODELO.FX
C:\PROGRAM FILES (X86)\WINDOWS KITS\10\BIN\10.0.19041.0\X86\FXC.EXE
