# 3ds Max Wavefront OBJ Exporter v0.99 - (c)2007 guruware
# File Created: 04.05.2021 13:51:37

mtllib Cott.mtl

#
# object Cube
#

v  5.6773 5.3691 -4.6156
v  5.6773 6.0025 -4.6156
v  8.9858 6.0025 -4.8520
v  9.4053 6.0025 1.0193
v  9.3549 6.4408 0.3143
v  9.5262 6.8156 2.7120
v  9.6177 6.0025 3.9551
v  9.1955 6.0025 -1.9164
v  9.2447 6.4408 -1.2282
v  -7.3105 6.0025 -0.2259
v  -7.1734 6.0025 1.6927
v  -7.1874 6.4408 1.4962
v  -7.2976 6.4408 -0.0462
v  9.3543 7.8905 0.3055
v  9.3871 8.0894 0.7650
v  9.2987 8.8967 -0.4718
v  9.2989 8.8967 -0.4691
v  9.2442 7.8905 -1.2353
v  9.2985 8.8967 -0.4746
v  -7.2981 7.8905 -0.0533
v  -7.1880 7.8905 1.4874
v  -7.2436 8.8967 0.7101
v  -7.2438 8.8967 0.7073
v  -7.1037 5.3691 2.6685
v  -7.1734 5.3691 1.6927
v  -7.3105 5.3691 -0.2259
v  -7.1734 1.2551 1.6927
v  -7.9374 1.2551 1.7473
v  -7.9374 0.9193 1.7473
v  -7.1734 0.9193 1.6927
v  -7.1037 0.9193 2.6685
v  -7.1734 1.6067 1.6927
v  -7.3105 0.9193 -0.2259
v  -7.3105 1.2487 -0.2259
v  -7.3803 0.9193 -1.2027
v  -7.2440 8.8967 0.7045
v  -7.3312 8.0894 -0.5157
v  -7.4687 6.8156 -2.4411
v  -7.5565 6.0025 -3.6701
v  9.0736 6.8156 -3.6230
v  9.2111 8.0894 -1.6977
v  9.2983 8.8967 -0.4774
v  -7.3803 5.3691 -1.2027
v  -7.5127 5.3691 -3.0565
v  -6.9247 6.0025 5.1370
v  -6.9710 5.3836 4.5253
v  -7.0161 6.8156 3.8939
v  -7.1552 8.0894 1.9469
v  -7.2434 8.8967 0.7128
v  -6.9710 2.4285 4.5253
v  -7.1037 2.4285 2.6685
v  -6.9247 0.9193 5.1370
v  -7.3803 2.4285 -1.2027
v  -7.5127 2.4285 -3.0565
v  -7.5565 0.9193 -3.6701
v  -7.3105 1.6067 -0.2259
v  5.6773 0.9193 -4.6156
v  5.6773 2.4285 -4.6156
v  8.9858 0.9193 -4.8520
v  9.4053 3.7962 1.0193
v  9.6177 0.9193 3.9551
v  9.4053 0.9193 1.0193
v  9.1955 3.7973 -1.9164
v  9.1955 0.9193 -1.9164
v  -7.0625 5.3691 1.6847
v  -7.0625 1.6067 1.6847
v  -7.1995 5.3691 -0.2339
v  -7.1995 1.6067 -0.2339
v  -7.6094 1.6067 1.7238
v  -7.6094 1.2551 1.7238
v  -8.0745 1.2487 -0.1713
v  -8.0745 0.9193 -0.1713
v  -7.7465 1.6067 -0.1948
v  -7.7465 1.2487 -0.1948
v  -4.2481 5.3691 -3.9065
v  -4.2481 2.4285 -3.9065
v  -1.8105 5.3691 -4.0806
v  3.2397 5.3691 -4.4415
v  3.2397 2.4285 -4.4415
v  -1.8105 2.4285 -4.0806
v  -4.2481 0.9193 -3.9065
v  -1.8105 0.9193 -4.0806
v  3.2397 0.9193 -4.4415
v  -4.2481 6.0025 -3.9065
v  -1.8105 6.0025 -4.0806
v  3.2397 6.0025 -4.4415
v  6.1740 5.0346 4.0735
v  8.0306 5.0346 3.9408
v  8.0398 5.0346 4.0683
v  6.1831 5.0346 4.2009
v  5.8323 1.1327 4.2260
v  6.1831 1.3988 4.2009
v  -1.1759 0.9193 4.7267
v  -1.1759 2.1087 4.7267
v  -3.6135 2.1087 4.9009
v  -3.6135 5.0346 4.9009
v  8.0398 1.3988 4.0683
v  -3.6135 0.9193 4.9009
v  8.0398 6.0025 4.0683
v  6.1831 6.0025 4.2009
v  -3.6135 6.0025 4.9009
v  -1.1759 5.0346 4.7267
v  -1.1759 6.0025 4.7267
v  6.2168 0.9193 4.6718
v  6.2168 1.1484 4.6718
v  6.1831 1.1484 4.2009
v  6.1831 0.9193 4.2009
v  8.0398 0.9193 4.0683
v  8.0398 1.1533 4.0683
v  8.0306 1.3988 3.9408
v  6.1740 1.3988 4.0735
v  6.1974 1.1484 4.4007
v  6.1974 1.3988 4.4007
v  8.0734 0.9193 4.5392
v  8.0734 1.1533 4.5392
v  8.0540 1.3988 4.2681
v  8.0540 1.1533 4.2681
v  9.7178 4.2148 -1.9862
v  10.1699 4.2148 -1.5914
v  10.2569 4.0774 -1.7205
v  9.7527 4.0774 -2.1609
v  9.2658 4.2148 -2.3811
v  9.2485 4.0774 -2.6012
v  9.5127 4.2148 1.4419
v  9.5239 4.0774 1.6625
v  9.9672 4.0774 1.1610
v  9.9102 4.2148 0.9922
v  10.3507 4.2148 -0.5316
v  9.2752 5.1533 -0.4980
v  9.2812 5.1533 -0.4626
v  10.3077 4.2148 0.5425
v  9.2798 5.1533 -0.4267
v  9.2665 5.1533 -0.4117
v  9.2533 5.1533 -0.3967
v  9.0255 4.2148 -2.3655
v  9.2370 5.1533 -0.5238
v  9.2450 5.1533 -0.5243
v  9.2601 5.1533 -0.5111
v  9.2452 5.1533 -0.3962
v  9.2724 4.2148 1.4575
v  10.4105 3.9943 0.6594
v  10.4105 4.0774 0.6594
v  9.9672 3.9943 1.1610
v  9.5239 3.9943 1.6625
v  8.9806 3.9943 -2.5839
v  8.9806 4.0774 -2.5839
v  9.2485 3.9943 -2.6012
v  9.7527 3.9943 -2.1609
v  10.2569 3.9943 -1.7205
v  9.2559 4.0774 1.6798
v  9.2559 3.9943 1.6798
v  10.4585 3.9943 -0.5386
v  10.4585 4.0774 -0.5386
v  9.5915 3.9943 1.0492
v  9.9087 3.9943 0.6903
v  9.3945 3.9943 -2.0017
v  9.2028 3.9943 -1.9893
v  10.1160 3.9943 -1.3715
v  9.7552 3.9943 -1.6866
v  10.2260 3.9943 0.3314
v  10.2603 3.9943 -0.5258
v  9.3998 3.9943 1.0616
v  9.9517 4.0619 0.7715
v  9.6122 4.0619 1.1556
v  9.6122 3.6942 1.1556
v  10.2913 3.6942 0.3874
v  9.4070 4.0619 1.1688
v  9.4070 0.9242 1.1688
v  9.6122 0.9242 1.1556
v  10.3684 3.6942 0.0962
v  10.3337 3.5948 0.0352
v  10.2609 3.5948 -1.0916
v  10.2875 3.6942 -1.1565
v  9.7874 4.0619 -1.7726
v  10.1735 4.0619 -1.4354
v  10.1735 3.6942 -1.4354
v  9.4013 3.6942 -2.1099
v  10.2875 0.9242 -1.1565
v  10.2875 4.0619 -1.1565
v  10.2913 0.9242 0.3874
v  10.2913 4.0619 0.3874
v  10.3280 4.0619 -0.5302
v  10.3684 4.0619 0.0962
v  10.1699 3.6226 0.3290
v  10.1699 1.7864 0.3290
v  9.5400 3.6226 1.0417
v  9.3564 3.6226 -1.9884
v  9.3564 1.7864 -1.9884
v  9.4013 0.9242 -2.1099
v  10.2609 1.8142 -1.0916
v  10.0728 3.6226 -1.3627
v  10.2875 1.7148 -1.1565
v  10.3337 1.8142 0.0352
v  10.3684 1.7148 0.0962
v  10.3684 0.9242 0.0962
v  10.2913 1.7148 0.3874
v  9.5400 1.7864 1.0417
v  9.6122 1.7148 1.1556
v  9.4013 1.7148 -2.1099
v  10.1735 1.7148 -1.4354
v  10.1735 0.9242 -1.4354
v  9.4013 4.0619 -2.1099
v  10.0728 1.7864 -1.3627
v  9.1961 0.9242 -2.0966
v  9.1961 4.0619 -2.0966
v  8.3006 4.9922 4.6473
v  8.3100 4.9464 4.7789
v  8.3086 4.8930 4.7604
v  8.2992 4.9388 4.6288
v  6.1622 4.9464 4.9323
v  6.0410 4.9464 4.9410
v  6.0396 4.8930 4.9225
v  6.1609 4.8930 4.9138
v  6.0316 4.9922 4.8095
v  5.9762 5.2620 4.0348
v  5.9749 5.2086 4.0163
v  6.0302 4.9388 4.7910
v  8.2452 5.2620 3.8727
v  8.1239 5.2620 3.8813
v  8.1793 4.9922 4.6560
v  6.1528 4.9922 4.8008
v  6.0975 5.2620 4.0261
v  6.1037 4.9559 4.1125
v  6.0962 5.2086 4.0076
v  6.1515 4.9388 4.7823
v  6.1079 4.7657 4.1721
v  8.1226 5.2086 3.8628
v  8.1780 4.9388 4.6375
v  8.1887 4.9464 4.7875
v  8.1874 4.8930 4.7690
v  8.2439 5.2086 3.8542
v  5.9866 4.7657 4.1807
v  5.9824 4.9559 4.1212
v  8.1344 4.7657 4.0273
v  8.2556 4.7657 4.0186
v  8.2514 4.9559 3.9591
v  8.1301 4.9559 3.9677
v  -7.7436 5.3907 1.9170
v  -7.8752 5.3449 1.9264
v  -7.8567 5.2915 1.9251
v  -7.7251 5.3373 1.9157
v  -8.0286 5.3449 -0.2213
v  -8.0373 5.3449 -0.3426
v  -8.0188 5.2915 -0.3439
v  -8.0101 5.2915 -0.2226
v  -7.9058 5.3907 -0.3520
v  -7.1311 5.6605 -0.4073
v  -7.1126 5.6071 -0.4087
v  -7.8873 5.3373 -0.3533
v  -6.9690 5.6605 1.8617
v  -6.9777 5.6605 1.7404
v  -7.7523 5.3907 1.7957
v  -7.8971 5.3907 -0.2307
v  -7.1224 5.6605 -0.2861
v  -7.2088 5.3544 -0.2799
v  -7.1039 5.6071 -0.2874
v  -7.8786 5.3373 -0.2320
v  -7.2684 5.1642 -0.2756
v  -6.9592 5.6071 1.7391
v  -7.7338 5.3373 1.7944
v  -7.8838 5.3449 1.8051
v  -7.8653 5.2915 1.8038
v  -6.9505 5.6071 1.8603
v  -7.2770 5.1642 -0.3969
v  -7.2175 5.3544 -0.4012
v  -7.1236 5.1642 1.7508
v  -7.1149 5.1642 1.8721
v  -7.0554 5.3544 1.8678
v  -7.0641 5.3544 1.7466
v  -0.4516 7.4719 4.4181
v  -0.6298 7.4719 1.9242
v  -0.4826 6.1966 3.9844
v  -0.4516 6.1966 4.4181
v  2.2222 6.1966 3.7912
v  2.0750 7.4719 1.7309
v  2.2532 7.4719 4.2248
v  2.2532 6.1966 4.2248
v  0.9008 8.6793 4.3215
v  0.6254 8.6793 0.4671
v  -0.6298 7.5459 1.9242
v  -0.4516 7.5459 4.4181
v  -0.7043 7.2558 4.4362
v  -0.8615 7.2558 2.2369
v  0.9153 8.6053 4.5250
v  0.9153 8.6793 4.5250
v  -0.4371 7.5459 4.6216
v  -0.4371 7.4719 4.6216
v  2.2677 7.4719 4.4284
v  2.2677 7.5459 4.4284
v  0.9008 8.6053 4.3215
v  2.3487 7.2558 2.0075
v  2.3487 7.3299 2.0075
v  2.5059 7.3299 4.2068
v  2.5059 7.2558 4.2068
v  -0.7043 7.3299 4.4362
v  -0.8615 7.3299 2.2369
v  -0.6898 7.2558 4.6397
v  -0.6898 7.3299 4.6397
v  2.5204 7.3299 4.4103
v  2.5204 7.2558 4.4103
v  0.3868 7.9012 4.3582
v  0.8999 8.6053 4.3215
v  0.8981 8.6053 4.3217
v  0.2232 8.0386 4.3699
v  0.3887 6.9474 4.3581
v  0.4500 6.1966 4.3537
v  1.4128 6.9474 4.2849
v  1.3516 6.1966 4.2893
v  0.9034 8.6053 4.3213
v  0.9016 8.6053 4.3214
v  1.4147 7.9012 4.2847
v  1.5783 8.0386 4.2731
v  2.0750 7.5459 1.7309
v  2.2532 7.5459 4.2248
v  -8.1173 5.6914 -4.2884
v  -7.7566 8.9526 0.7596
v  9.8216 8.9526 -0.4963
v  9.4609 5.6914 -5.5443
v  10.1822 5.6914 4.5516
v  -7.3960 5.6914 5.8076
v  9.8216 8.8365 -0.4963
v  -7.7566 8.8365 0.7596
v  -8.1081 5.6097 -4.1592
v  9.4701 5.6097 -5.4151
v  10.1730 5.6097 4.4225
v  -7.4052 5.6097 5.6784
# 326 vertices

vn -0.0713 0.0000 -0.9975
vn 0.9974 0.0012 -0.0718
vn 0.9975 0.0000 -0.0713
vn -0.9975 0.0000 0.0713
vn 0.9975 -0.0000 -0.0713
vn -0.9975 -0.0000 0.0713
vn 0.0713 0.0000 0.9975
vn -0.9974 0.0022 0.0718
vn -0.9974 -0.0015 0.0718
vn -0.9974 -0.0007 0.0719
vn 0.9974 0.0000 -0.0722
vn -0.9971 0.0000 0.0755
vn 0.0000 -1.0000 -0.0000
vn 0.0000 1.0000 -0.0000
vn -0.0002 1.0000 -0.0033
vn 0.0711 0.0000 0.9975
vn 0.0715 0.0000 0.9974
vn -0.0026 1.0000 0.0002
vn 0.4371 0.7474 -0.5004
vn 0.4978 0.7474 0.4400
vn 0.6515 0.7505 -0.1111
vn 0.4147 0.8328 0.3666
vn -0.0291 0.8919 -0.4512
vn 0.3641 0.8328 -0.4169
vn 0.0291 0.8919 0.4512
vn 0.6604 0.7505 0.0264
vn 0.7492 0.0000 0.6623
vn -0.0644 0.0000 -0.9979
vn 0.6578 0.0000 -0.7532
vn 0.0644 0.0000 0.9979
vn 0.9992 0.0000 0.0400
vn 0.9858 0.0000 -0.1682
vn 0.7870 0.6162 0.0315
vn -0.0340 0.8492 -0.5270
vn 0.0340 0.8492 0.5270
vn 0.7764 0.6162 -0.1324
vn 0.9533 -0.2956 -0.0616
vn 0.9979 0.0000 -0.0644
vn -0.4334 0.0000 0.9012
vn 0.3623 -0.8753 0.3203
vn 0.9381 0.0000 0.3465
vn 0.9251 0.0000 0.3796
vn 0.3349 -0.8607 -0.3835
vn 0.9533 0.2956 -0.0616
vn 0.3623 0.8753 0.3203
vn 0.3349 0.8607 -0.3835
vn -0.5852 0.0000 -0.8109
vn 0.8686 0.0000 -0.4955
vn 0.8445 0.0000 -0.5355
vn 0.9666 0.0000 0.2562
vn 0.9257 0.0000 -0.3784
vn 0.0673 -0.3282 0.9422
vn 0.0234 0.9446 0.3273
vn -0.0234 -0.9446 -0.3273
vn 0.0194 -0.9622 0.2716
vn -0.9422 -0.3282 0.0673
vn -0.3273 0.9446 0.0234
vn 0.3273 -0.9446 -0.0234
vn -0.2716 -0.9622 0.0194
vn -0.6397 0.7672 0.0457
vn 0.6472 -0.7609 -0.0462
vn -0.6397 -0.7672 0.0457
vn 0.6397 -0.7672 -0.0457
vn -0.6472 -0.7609 0.0462
vn -0.6472 0.7609 0.0462
vn 0.6397 0.7672 -0.0457
vn 0.6472 0.7609 -0.0462
vn -0.0386 0.8406 -0.5403
vn 0.0386 0.8406 0.5403
vn 0.0390 -0.8368 0.5462
vn -0.0390 -0.8368 -0.5462
vn 0.0380 -0.8459 0.5320
vn -0.0380 -0.8459 -0.5320
# 73 vertex normals

vt 0.1029 0.6592 0.0000
vt 0.1029 0.6775 0.0000
vt 0.0123 0.6775 0.0000
vt 0.3922 0.8736 0.0000
vt 0.4139 0.8893 0.0000
vt 0.3400 0.9027 0.0000
vt 0.3017 0.8736 0.0000
vt 0.4826 0.8736 0.0000
vt 0.4614 0.8893 0.0000
vt 0.1203 0.8742 0.0000
vt 0.1796 0.8742 0.0000
vt 0.1735 0.8898 0.0000
vt 0.1259 0.8898 0.0000
vt 0.4142 0.9411 0.0000
vt 0.4000 0.9482 0.0000
vt 0.4381 0.9770 0.0000
vt 0.4380 0.9770 0.0000
vt 0.4616 0.9411 0.0000
vt 0.4382 0.9770 0.0000
vt 0.1257 0.9417 0.0000
vt 0.1732 0.9417 0.0000
vt 0.1492 0.9778 0.0000
vt 0.2097 0.8515 0.0000
vt 0.1796 0.8515 0.0000
vt 0.1203 0.8515 0.0000
vt 0.1533 0.3533 0.0000
vt 0.0645 0.3533 0.0000
vt 0.0645 0.2964 0.0000
vt 0.1533 0.2964 0.0000
vt 0.2097 0.6922 0.0000
vt 0.1796 0.7168 0.0000
vt 0.1796 0.7042 0.0000
vt 0.1203 0.6922 0.0000
vt 0.1203 0.7040 0.0000
vt 0.0902 0.6922 0.0000
vt 0.1491 0.9778 0.0000
vt 0.1114 0.9489 0.0000
vt 0.0519 0.9033 0.0000
vt 0.0140 0.8742 0.0000
vt 0.5730 0.8736 0.0000
vt 0.5352 0.9027 0.0000
vt 0.4759 0.9482 0.0000
vt 0.4383 0.9770 0.0000
vt 0.0902 0.8515 0.0000
vt 0.0329 0.8515 0.0000
vt 0.2859 0.8742 0.0000
vt 0.2670 0.8520 0.0000
vt 0.2476 0.9033 0.0000
vt 0.1874 0.9489 0.0000
vt 0.1493 0.9778 0.0000
vt 0.2670 0.7462 0.0000
vt 0.2097 0.7462 0.0000
vt 0.2859 0.6922 0.0000
vt 0.0902 0.7462 0.0000
vt 0.0329 0.7462 0.0000
vt 0.0140 0.6922 0.0000
vt 0.1203 0.7168 0.0000
vt 0.1029 0.5307 0.0000
vt 0.1029 0.5743 0.0000
vt 0.0123 0.5307 0.0000
vt 0.3922 0.7948 0.0000
vt 0.3017 0.6921 0.0000
vt 0.3922 0.6921 0.0000
vt 0.5730 0.6921 0.0000
vt 0.4826 0.7949 0.0000
vt 0.4826 0.6921 0.0000
vt 0.1859 0.8472 0.0000
vt 0.1827 0.8472 0.0000
vt 0.1827 0.7178 0.0000
vt 0.1859 0.7178 0.0000
vt 0.4218 0.4935 0.0000
vt 0.4218 0.4967 0.0000
vt 0.3696 0.4967 0.0000
vt 0.3696 0.4935 0.0000
vt 0.1178 0.7190 0.0000
vt 0.1146 0.7190 0.0000
vt 0.1146 0.8483 0.0000
vt 0.1178 0.8483 0.0000
vt 0.2850 0.2492 0.0000
vt 0.2886 0.2492 0.0000
vt 0.2886 0.3538 0.0000
vt 0.2850 0.3538 0.0000
vt 0.0616 0.3536 0.0000
vt 0.0109 0.3536 0.0000
vt 0.0109 0.2931 0.0000
vt 0.0616 0.2931 0.0000
vt 0.1796 0.6922 0.0000
vt 0.2031 0.3538 0.0000
vt 0.2039 0.2492 0.0000
vt 0.2462 0.2492 0.0000
vt 0.2462 0.3538 0.0000
vt 0.0643 0.3534 0.0000
vt 0.1531 0.3534 0.0000
vt 0.1531 0.2964 0.0000
vt 0.0643 0.2964 0.0000
vt 0.2709 0.3538 0.0000
vt 0.2709 0.2492 0.0000
vt 0.2023 0.3538 0.0000
vt 0.1572 0.3538 0.0000
vt 0.1572 0.2492 0.0000
vt 0.2031 0.2492 0.0000
vt 0.0109 0.2930 0.0000
vt 0.0616 0.2930 0.0000
vt 0.4651 0.6775 0.0000
vt 0.3746 0.6592 0.0000
vt 0.3746 0.5743 0.0000
vt 0.4651 0.5307 0.0000
vt 0.3078 0.6592 0.0000
vt 0.1696 0.6592 0.0000
vt 0.1696 0.5743 0.0000
vt 0.3078 0.5743 0.0000
vt 0.3746 0.5307 0.0000
vt 0.3078 0.5307 0.0000
vt 0.1696 0.5307 0.0000
vt 0.3746 0.6775 0.0000
vt 0.3078 0.6775 0.0000
vt 0.1696 0.6775 0.0000
vt 0.3597 0.5051 0.0000
vt 0.4282 0.5051 0.0000
vt 0.4282 0.5103 0.0000
vt 0.3597 0.5103 0.0000
vt 0.3609 0.3785 0.0000
vt 0.3705 0.3862 0.0000
vt 0.3705 0.4912 0.0000
vt 0.1691 0.3724 0.0000
vt 0.1691 0.4067 0.0000
vt 0.1024 0.4067 0.0000
vt 0.1024 0.4912 0.0000
vt 0.0118 0.5192 0.0000
vt 0.0118 0.3724 0.0000
vt 0.4646 0.3724 0.0000
vt 0.4646 0.5192 0.0000
vt 0.4214 0.4912 0.0000
vt 0.4214 0.3862 0.0000
vt 0.1024 0.3724 0.0000
vt 0.4214 0.5192 0.0000
vt 0.3705 0.5192 0.0000
vt 0.1024 0.5192 0.0000
vt 0.1691 0.4912 0.0000
vt 0.1691 0.5192 0.0000
vt 0.0185 0.2421 0.0000
vt 0.0185 0.2004 0.0000
vt 0.0991 0.2004 0.0000
vt 0.0991 0.2421 0.0000
vt 0.3705 0.3724 0.0000
vt 0.4214 0.3724 0.0000
vt 0.4214 0.3791 0.0000
vt 0.3675 0.4897 0.0000
vt 0.3675 0.3863 0.0000
vt 0.3643 0.3863 0.0000
vt 0.3643 0.4897 0.0000
vt 0.2634 0.2435 0.0000
vt 0.2634 0.1471 0.0000
vt 0.2734 0.1471 0.0000
vt 0.2734 0.2435 0.0000
vt 0.4278 0.3869 0.0000
vt 0.4278 0.4902 0.0000
vt 0.4246 0.4902 0.0000
vt 0.4246 0.3869 0.0000
vt 0.1042 0.2428 0.0000
vt 0.1042 0.1987 0.0000
vt 0.1384 0.1987 0.0000
vt 0.1384 0.2428 0.0000
vt 0.3705 0.3790 0.0000
vt 0.2265 0.2435 0.0000
vt 0.1853 0.2435 0.0000
vt 0.1862 0.1471 0.0000
vt 0.2265 0.1471 0.0000
vt 0.0189 0.2421 0.0000
vt 0.0189 0.2003 0.0000
vt 0.0995 0.2003 0.0000
vt 0.0995 0.2421 0.0000
vt 0.1853 0.1471 0.0000
vt 0.1413 0.2435 0.0000
vt 0.1422 0.1471 0.0000
vt 0.1040 0.2427 0.0000
vt 0.1040 0.1988 0.0000
vt 0.1382 0.1988 0.0000
vt 0.1382 0.2427 0.0000
vt 0.2891 0.1471 0.0000
vt 0.2891 0.2435 0.0000
vt 0.9100 0.9309 0.0000
vt 0.8758 0.8965 0.0000
vt 0.8857 0.8888 0.0000
vt 0.9239 0.9272 0.0000
vt 0.9442 0.9653 0.0000
vt 0.9620 0.9655 0.0000
vt 0.6346 0.9653 0.0000
vt 0.6168 0.9655 0.0000
vt 0.6549 0.9272 0.0000
vt 0.6688 0.9309 0.0000
vt 0.7894 0.8875 0.0000
vt 0.7923 0.9743 0.0000
vt 0.7894 0.9740 0.0000
vt 0.7030 0.8965 0.0000
vt 0.7865 0.9743 0.0000
vt 0.7854 0.9755 0.0000
vt 0.7842 0.9766 0.0000
vt 0.9442 0.9847 0.0000
vt 0.7946 0.9773 0.0000
vt 0.7946 0.9766 0.0000
vt 0.7934 0.9755 0.0000
vt 0.7842 0.9773 0.0000
vt 0.6346 0.9847 0.0000
vt 0.8589 0.8744 0.0000
vt 0.8589 0.8694 0.0000
vt 0.9131 0.8694 0.0000
vt 0.9131 0.8744 0.0000
vt 0.9674 0.8694 0.0000
vt 0.9674 0.8744 0.0000
vt 0.5846 0.8744 0.0000
vt 0.5846 0.8694 0.0000
vt 0.6112 0.8694 0.0000
vt 0.6112 0.8744 0.0000
vt 0.6654 0.8744 0.0000
vt 0.6654 0.8694 0.0000
vt 0.7196 0.8694 0.0000
vt 0.7196 0.8744 0.0000
vt 0.9939 0.8694 0.0000
vt 0.9939 0.8744 0.0000
vt 0.7893 0.8744 0.0000
vt 0.7893 0.8694 0.0000
vt 0.6931 0.8888 0.0000
vt 0.7894 0.8787 0.0000
vt 0.9620 0.9872 0.0000
vt 0.6168 0.9872 0.0000
vt 0.9409 0.2987 0.0000
vt 0.9071 0.2650 0.0000
vt 0.9147 0.3083 0.0000
vt 0.9389 0.3324 0.0000
vt 0.9071 0.5693 0.0000
vt 0.9147 0.5261 0.0000
vt 0.9010 0.5261 0.0000
vt 0.8880 0.5693 0.0000
vt 0.9747 0.5021 0.0000
vt 0.9631 0.4780 0.0000
vt 0.9389 0.5020 0.0000
vt 0.9409 0.5357 0.0000
vt 0.9836 0.4172 0.0000
vt 0.9747 0.3323 0.0000
vt 0.9631 0.3564 0.0000
vt 0.9695 0.4172 0.0000
vt 0.8880 0.2650 0.0000
vt 0.9010 0.3083 0.0000
vt 0.6626 0.8602 0.0000
vt 0.6168 0.8602 0.0000
vt 0.6168 0.8272 0.0000
vt 0.7085 0.8272 0.0000
vt 0.6026 0.8602 0.0000
vt 0.6026 0.5784 0.0000
vt 0.6168 0.5784 0.0000
vt 0.7361 0.8268 0.0000
vt 0.7417 0.8179 0.0000
vt 0.8427 0.8179 0.0000
vt 0.8483 0.8268 0.0000
vt 0.9210 0.8596 0.0000
vt 0.8751 0.8596 0.0000
vt 0.8751 0.8267 0.0000
vt 0.9668 0.8267 0.0000
vt 0.5806 0.5715 0.0000
vt 0.7922 0.8596 0.0000
vt 0.7361 0.8596 0.0000
vt 0.7023 0.8208 0.0000
vt 0.7023 0.6559 0.0000
vt 0.7085 0.5784 0.0000
vt 0.6223 0.8208 0.0000
vt 0.9610 0.8203 0.0000
vt 0.9610 0.6561 0.0000
vt 0.9668 0.5791 0.0000
vt 0.8427 0.6587 0.0000
vt 0.8483 0.5792 0.0000
vt 0.8799 0.8202 0.0000
vt 0.8483 0.6498 0.0000
vt 0.7417 0.6587 0.0000
vt 0.7361 0.6498 0.0000
vt 0.8483 0.8596 0.0000
vt 0.7361 0.5792 0.0000
vt 0.7085 0.6494 0.0000
vt 0.6223 0.6559 0.0000
vt 0.6168 0.6494 0.0000
vt 0.7085 0.8602 0.0000
vt 0.9668 0.6498 0.0000
vt 0.8751 0.6498 0.0000
vt 0.8751 0.5791 0.0000
vt 0.9668 0.8596 0.0000
vt 0.8799 0.6561 0.0000
vt 0.9800 0.5790 0.0000
vt 0.9800 0.8595 0.0000
vt 0.7106 0.5792 0.0000
vt 0.7106 0.8596 0.0000
vt 0.8738 0.5792 0.0000
vt 0.8738 0.8596 0.0000
vt 0.3377 0.1602 0.0000
vt 0.3378 0.1829 0.0000
vt 0.3470 0.1829 0.0000
vt 0.3469 0.1602 0.0000
vt 0.0535 0.0158 0.0000
vt 0.0396 0.0158 0.0000
vt 0.0396 0.0094 0.0000
vt 0.0535 0.0094 0.0000
vt 0.3376 0.1601 0.0000
vt 0.3372 0.0264 0.0000
vt 0.3463 0.0264 0.0000
vt 0.3468 0.1601 0.0000
vt 0.2973 0.0384 0.0000
vt 0.2973 0.1261 0.0000
vt 0.2835 0.1261 0.0000
vt 0.2835 0.0384 0.0000
vt 0.0542 0.0384 0.0000
vt 0.0542 0.1261 0.0000
vt 0.0404 0.1261 0.0000
vt 0.0404 0.0384 0.0000
vt 0.3781 0.2245 0.0000
vt 0.3403 0.1907 0.0000
vt 0.3402 0.3430 0.0000
vt 0.4078 0.2465 0.0000
vt 0.0546 0.0384 0.0000
vt 0.0546 0.1261 0.0000
vt 0.2840 0.1261 0.0000
vt 0.2840 0.0384 0.0000
vt 0.2984 0.0158 0.0000
vt 0.2845 0.0158 0.0000
vt 0.2845 0.0094 0.0000
vt 0.2984 0.0094 0.0000
vt 0.0546 0.0235 0.0000
vt 0.2840 0.0235 0.0000
vt 0.2977 0.0384 0.0000
vt 0.2977 0.0235 0.0000
vt 0.2835 0.0235 0.0000
vt 0.0542 0.0235 0.0000
vt 0.0404 0.0235 0.0000
vt 0.2973 0.0235 0.0000
vt 0.0409 0.0235 0.0000
vt 0.0409 0.0384 0.0000
vt 0.3377 0.1828 0.0000
vt 0.3469 0.1827 0.0000
vt 0.3372 0.0266 0.0000
vt 0.3464 0.0265 0.0000
vt 0.0077 0.1258 0.0000
vt 0.0073 0.0264 0.0000
vt 0.0271 0.0264 0.0000
vt 0.0275 0.1257 0.0000
vt 0.3797 0.0559 0.0000
vt 0.4057 0.0751 0.0000
vt 0.3050 0.1256 0.0000
vt 0.3045 0.0263 0.0000
vt 0.3243 0.0262 0.0000
vt 0.3247 0.1256 0.0000
vt 0.3797 0.0561 0.0000
vt 0.4058 0.0753 0.0000
vt 0.9820 0.0101 0.0000
vt 0.9820 0.1598 0.0000
vt 0.9292 0.0362 0.0000
vt 0.9292 0.0101 0.0000
vt 0.9290 0.0360 0.0000
vt 0.9818 0.1597 0.0000
vt 0.9818 0.0100 0.0000
vt 0.9290 0.0100 0.0000
vt 0.8869 0.1099 0.0000
vt 0.6938 0.1099 0.0000
vt 0.7620 0.0216 0.0000
vt 0.8869 0.0216 0.0000
vt 0.9346 0.2341 0.0000
vt 0.9346 0.2550 0.0000
vt 0.7872 0.2550 0.0000
vt 0.7674 0.2341 0.0000
vt 0.5414 0.2548 0.0000
vt 0.5414 0.2610 0.0000
vt 0.4286 0.1665 0.0000
vt 0.4286 0.1603 0.0000
vt 0.6541 0.1603 0.0000
vt 0.6541 0.1665 0.0000
vt 0.9343 0.2339 0.0000
vt 0.9479 0.2339 0.0000
vt 0.9479 0.1230 0.0000
vt 0.9343 0.1230 0.0000
vt 0.8971 0.0216 0.0000
vt 0.8971 0.1099 0.0000
vt 0.9346 0.1233 0.0000
vt 0.9483 0.1233 0.0000
vt 0.9483 0.2341 0.0000
vt 0.9862 0.0094 0.0000
vt 0.9898 0.0094 0.0000
vt 0.9898 0.1625 0.0000
vt 0.9862 0.1625 0.0000
vt 0.9898 0.1628 0.0000
vt 0.9862 0.1628 0.0000
vt 0.9862 0.0097 0.0000
vt 0.9898 0.0097 0.0000
vt 0.9898 0.1770 0.0000
vt 0.9862 0.1770 0.0000
vt 0.9898 0.1767 0.0000
vt 0.9862 0.1767 0.0000
vt 0.4075 0.1485 0.0000
vt 0.4075 0.1423 0.0000
vt 0.9343 0.2548 0.0000
vt 0.9479 0.2548 0.0000
vt 0.6752 0.1423 0.0000
vt 0.6752 0.1485 0.0000
vt 0.8868 0.0050 0.0000
vt 0.8970 0.0050 0.0000
vt 0.7671 0.2339 0.0000
vt 0.7868 0.2548 0.0000
vt 0.7767 0.0050 0.0000
vt 0.9483 0.2550 0.0000
vt 0.4937 0.1739 0.0000
vt 0.5431 0.2415 0.0000
vt 0.5429 0.2415 0.0000
vt 0.4779 0.1871 0.0000
vt 0.4938 0.0823 0.0000
vt 0.4129 0.1326 0.0000
vt 0.4129 0.0101 0.0000
vt 0.4997 0.0101 0.0000
vt 0.6734 0.0101 0.0000
vt 0.6734 0.1326 0.0000
vt 0.5925 0.0823 0.0000
vt 0.5866 0.0101 0.0000
vt 0.5434 0.2415 0.0000
vt 0.5433 0.2415 0.0000
vt 0.5927 0.1739 0.0000
vt 0.6084 0.1871 0.0000
vt 0.7633 0.2028 0.0000
vt 0.6944 0.1151 0.0000
vt 0.8875 0.1149 0.0000
vt 0.8864 0.2026 0.0000
vt 0.8964 0.2026 0.0000
vt 0.8961 0.2188 0.0000
vt 0.8861 0.2188 0.0000
vt 0.8976 0.1149 0.0000
vt 0.7779 0.2190 0.0000
vt 0.4896 0.4178 0.0000
vt 0.4896 0.2964 0.0000
vt 0.8140 0.2964 0.0000
vt 0.8140 0.4178 0.0000
vt 0.8137 0.4339 0.0000
vt 0.8137 0.5547 0.0000
vt 0.4892 0.5547 0.0000
vt 0.4892 0.4339 0.0000
vt 0.8140 0.4176 0.0000
vt 0.4895 0.4176 0.0000
vt 0.4895 0.2967 0.0000
vt 0.8140 0.2967 0.0000
vt 0.4895 0.4341 0.0000
vt 0.8140 0.4341 0.0000
vt 0.8140 0.5550 0.0000
vt 0.4895 0.5550 0.0000
vt 0.4897 0.2902 0.0000
vt 0.4897 0.2685 0.0000
vt 0.8152 0.2685 0.0000
vt 0.8152 0.2902 0.0000
vt 0.8140 0.2683 0.0000
vt 0.8140 0.2904 0.0000
vt 0.4895 0.2904 0.0000
vt 0.4895 0.2683 0.0000
vt 0.8913 0.4187 0.0000
vt 0.8889 0.4187 0.0000
vt 0.8213 0.3154 0.0000
vt 0.8230 0.3127 0.0000
vt 0.8321 0.3033 0.0000
vt 0.8303 0.3063 0.0000
vt 0.9031 0.4175 0.0000
vt 0.9057 0.4175 0.0000
vt 0.8303 0.5287 0.0000
vt 0.8321 0.5316 0.0000
vt 0.8230 0.5247 0.0000
vt 0.8213 0.5219 0.0000
# 466 texture coords

o Cube
g Cube
usemtl Cottage_lambert2SG
s off
f 1/1/1 2/2/1 3/3/1 
f 4/4/2 5/5/2 6/6/2 
f 6/6/2 7/7/2 4/4/2 
f 8/8/3 9/9/3 5/5/3 
f 5/5/3 4/4/3 8/8/3 
f 10/10/4 11/11/4 12/12/4 
f 12/12/4 13/13/4 10/10/4 
f 5/5/5 14/14/5 15/15/5 
f 15/15/5 6/6/5 5/5/5 
f 14/14/5 16/16/5 17/17/5 
f 17/17/5 15/15/5 14/14/5 
f 18/18/5 19/19/5 16/16/5 
f 16/16/5 14/14/5 18/18/5 
f 20/20/6 21/21/6 22/22/6 
f 22/22/6 23/22/6 20/20/6 
f 24/23/4 11/11/4 25/24/4 
f 11/11/4 10/10/4 26/25/4 
f 26/25/4 25/24/4 11/11/4 
f 27/26/7 28/27/7 29/28/7 
f 29/28/7 30/29/7 27/26/7 
f 31/30/4 32/31/4 27/32/4 
f 33/33/4 34/34/4 35/35/4 
f 20/20/6 23/22/6 36/36/6 
f 36/36/6 37/37/6 20/20/6 
f 13/13/6 20/20/6 37/37/6 
f 37/37/6 38/38/6 13/13/6 
f 10/10/4 13/13/4 38/38/4 
f 38/38/4 39/39/4 10/10/4 
f 8/8/3 3/40/3 40/41/3 
f 40/41/3 9/9/3 8/8/3 
f 9/9/5 40/41/5 41/42/5 
f 41/42/5 18/18/5 9/9/5 
f 18/18/5 41/42/5 42/43/5 
f 42/43/5 19/19/5 18/18/5 
f 26/25/4 10/10/4 43/44/4 
f 43/44/6 10/10/6 39/39/6 
f 39/39/6 44/45/6 43/44/6 
f 45/46/8 11/11/8 24/23/8 
f 24/23/8 46/47/8 45/46/8 
f 11/11/9 45/46/9 47/48/9 
f 47/48/9 12/12/9 11/11/9 
f 12/12/6 47/48/6 48/49/6 
f 48/49/6 21/21/6 12/12/6 
f 21/21/6 48/49/6 49/50/6 
f 49/50/6 22/22/6 21/21/6 
f 50/51/10 51/52/10 31/30/10 
f 31/30/10 52/53/10 50/51/10 
f 35/35/4 53/54/4 54/55/4 
f 54/55/4 55/56/4 35/35/4 
f 56/57/4 53/54/4 35/35/4 
f 31/30/4 51/52/4 32/31/4 
f 57/58/1 58/59/1 59/60/1 
f 60/61/11 7/7/11 61/62/11 
f 61/62/11 62/63/11 60/61/11 
f 45/46/12 46/47/12 50/51/12 
f 50/51/12 52/53/12 45/46/12 
f 26/25/4 43/44/4 53/54/4 
f 53/54/4 56/57/4 26/25/4 
f 59/64/3 3/40/3 63/65/3 
f 63/65/3 64/66/3 59/64/3 
f 25/67/1 65/68/1 66/69/1 
f 66/69/1 32/70/1 25/67/1 
f 51/52/4 24/23/4 25/24/4 
f 25/24/4 32/31/4 51/52/4 
f 58/59/1 1/1/1 3/3/1 
f 3/3/1 59/60/1 58/59/1 
f 54/55/4 44/45/4 39/39/4 
f 39/39/4 55/56/4 54/55/4 
f 13/13/4 12/12/4 21/21/4 
f 21/21/4 20/20/4 13/13/4 
f 65/24/4 67/25/4 68/57/4 
f 68/57/4 66/31/4 65/24/4 
f 26/71/13 67/72/13 65/73/13 
f 65/73/13 25/74/13 26/71/13 
f 56/75/7 68/76/7 67/77/7 
f 67/77/7 26/78/7 56/75/7 
f 32/79/14 66/80/14 68/81/14 
f 68/81/14 56/82/14 32/79/14 
f 32/83/7 69/84/7 70/85/7 
f 70/85/7 27/86/7 32/83/7 
f 27/32/4 30/87/4 31/30/4 
f 35/35/4 34/34/4 56/57/4 
f 28/88/4 71/89/4 72/90/4 
f 72/90/4 29/91/4 28/88/4 
f 33/92/1 72/93/1 71/94/1 
f 71/94/1 34/95/1 33/92/1 
f 34/96/15 71/91/15 28/90/15 
f 28/90/15 27/97/15 34/96/15 
f 70/98/4 69/99/4 73/100/4 
f 73/100/4 74/101/4 70/98/4 
f 56/82/14 73/96/14 69/97/14 
f 69/97/14 32/79/14 56/82/14 
f 34/102/1 74/103/1 73/83/1 
f 73/83/1 56/84/1 34/102/1 
f 39/104/1 75/105/1 76/106/1 
f 76/106/1 55/107/1 39/104/1 
f 77/108/1 78/109/1 79/110/1 
f 79/110/1 80/111/1 77/108/1 
f 55/107/1 76/106/1 81/112/1 
f 76/106/1 80/111/1 82/113/1 
f 82/113/1 81/112/1 76/106/1 
f 80/111/1 79/110/1 83/114/1 
f 83/114/1 82/113/1 80/111/1 
f 79/110/1 58/59/1 57/58/1 
f 57/58/1 83/114/1 79/110/1 
f 39/104/1 84/115/1 75/105/1 
f 84/115/1 85/116/1 77/108/1 
f 77/108/1 75/105/1 84/115/1 
f 85/116/1 86/117/1 78/109/1 
f 78/109/1 77/108/1 85/116/1 
f 86/117/1 2/2/1 1/1/1 
f 1/1/1 78/109/1 86/117/1 
f 80/111/1 76/106/1 75/105/1 
f 75/105/1 77/108/1 80/111/1 
f 58/59/1 79/110/1 78/109/1 
f 78/109/1 1/1/1 58/59/1 
f 63/65/3 8/8/3 4/4/3 
f 4/4/3 60/61/3 63/65/3 
f 7/7/11 60/61/11 4/4/11 
f 63/65/3 3/40/3 8/8/3 
f 87/118/13 88/119/13 89/120/13 
f 89/120/13 90/121/13 87/118/13 
f 91/122/7 92/123/7 90/124/7 
f 93/125/7 91/122/7 94/126/7 
f 95/127/16 96/128/16 45/129/16 
f 45/129/16 52/130/16 95/127/16 
f 61/131/17 7/132/17 89/133/17 
f 89/133/17 97/134/17 61/131/17 
f 52/130/16 98/135/16 95/127/16 
f 93/125/7 94/126/7 95/127/7 
f 95/127/7 98/135/7 93/125/7 
f 89/133/7 99/136/7 100/137/7 
f 100/137/7 90/124/7 89/133/7 
f 45/129/16 96/128/16 101/138/16 
f 102/139/7 103/140/7 101/138/7 
f 101/138/7 96/128/7 102/139/7 
f 89/133/17 7/132/17 99/136/17 
f 94/126/7 102/139/7 96/128/7 
f 96/128/7 95/127/7 94/126/7 
f 104/141/4 105/142/4 106/143/4 
f 106/143/4 107/144/4 104/141/4 
f 93/125/7 107/145/7 91/122/7 
f 108/146/17 61/131/17 109/147/17 
f 110/134/7 88/133/7 87/124/7 
f 87/124/7 111/123/7 110/134/7 
f 88/148/4 110/149/4 97/150/4 
f 97/150/4 89/151/4 88/148/4 
f 110/152/14 111/153/14 92/154/14 
f 92/154/14 97/155/14 110/152/14 
f 111/156/3 87/157/3 90/158/3 
f 90/158/3 92/159/3 111/156/3 
f 112/160/4 113/161/4 92/162/4 
f 92/162/4 106/163/4 112/160/4 
f 61/131/17 97/134/17 109/147/17 
f 90/124/7 100/137/7 103/140/7 
f 103/140/7 102/139/7 90/124/7 
f 94/126/7 91/122/7 90/124/7 
f 90/124/7 102/139/7 94/126/7 
f 106/164/7 92/123/7 91/122/7 
f 107/145/7 106/164/7 91/122/7 
f 114/165/7 115/166/7 105/167/7 
f 105/167/7 104/168/7 114/165/7 
f 115/169/3 114/170/3 108/171/3 
f 108/171/3 109/172/3 115/169/3 
f 105/153/18 115/152/18 109/165/18 
f 109/165/18 106/168/18 105/153/18 
f 116/173/7 113/166/7 112/174/7 
f 112/174/7 117/175/7 116/173/7 
f 116/176/3 117/177/3 109/178/3 
f 109/178/3 97/179/3 116/176/3 
f 113/180/14 116/181/14 97/155/14 
f 97/155/14 92/154/14 113/180/14 
f 43/44/4 44/45/4 54/55/4 
f 54/55/4 53/54/4 43/44/4 
f 46/47/4 24/23/4 51/52/4 
f 51/52/4 50/51/4 46/47/4 
f 14/14/3 5/5/3 9/9/3 
f 9/9/3 18/18/3 14/14/3 
f 118/182/19 119/183/19 120/184/19 
f 120/184/19 121/185/19 118/182/19 
f 122/186/19 118/182/19 121/185/19 
f 121/185/19 123/187/19 122/186/19 
f 124/188/20 125/189/20 126/190/20 
f 126/190/20 127/191/20 124/188/20 
f 128/192/21 119/183/21 129/193/21 
f 129/193/21 130/194/21 128/192/21 
f 131/195/22 132/196/22 133/197/22 
f 133/197/22 127/191/22 131/195/22 
f 127/191/22 133/197/22 134/198/22 
f 134/198/22 124/188/22 127/191/22 
f 135/199/23 136/200/23 137/201/23 
f 137/201/23 122/186/23 135/199/23 
f 119/183/24 118/182/24 138/202/24 
f 138/202/24 129/193/24 119/183/24 
f 118/182/24 122/186/24 137/201/24 
f 137/201/24 138/202/24 118/182/24 
f 124/188/25 134/198/25 139/203/25 
f 139/203/25 140/204/25 124/188/25 
f 128/192/26 130/194/26 132/196/26 
f 132/196/26 131/195/26 128/192/26 
f 141/205/27 142/206/27 126/207/27 
f 126/207/27 143/208/27 141/205/27 
f 143/208/27 126/207/27 125/209/27 
f 125/209/27 144/210/27 143/208/27 
f 145/211/28 146/212/28 123/213/28 
f 123/213/28 147/214/28 145/211/28 
f 148/215/29 121/216/29 120/217/29 
f 120/217/29 149/218/29 148/215/29 
f 147/214/29 123/213/29 121/216/29 
f 121/216/29 148/215/29 147/214/29 
f 144/210/30 125/209/30 150/219/30 
f 150/219/30 151/220/30 144/210/30 
f 152/221/31 153/222/31 142/206/31 
f 142/206/31 141/205/31 152/221/31 
f 149/218/32 120/217/32 153/222/32 
f 153/222/32 152/221/32 149/218/32 
f 131/195/33 142/223/33 153/224/33 
f 153/224/33 128/192/33 131/195/33 
f 127/191/20 126/190/20 142/223/20 
f 142/223/20 131/195/20 127/191/20 
f 135/199/34 122/186/34 123/187/34 
f 123/187/34 146/225/34 135/199/34 
f 140/204/35 150/226/35 125/189/35 
f 125/189/35 124/188/35 140/204/35 
f 119/183/36 128/192/36 153/224/36 
f 153/224/36 120/184/36 119/183/36 
f 143/227/13 144/228/13 154/229/13 
f 154/229/13 155/230/13 143/227/13 
f 147/231/13 156/232/13 157/233/13 
f 157/233/13 145/234/13 147/231/13 
f 149/235/13 158/236/13 159/237/13 
f 159/237/13 148/238/13 149/235/13 
f 152/239/13 141/240/13 160/241/13 
f 160/241/13 161/242/13 152/239/13 
f 148/238/13 159/237/13 156/232/13 
f 156/232/13 147/231/13 148/238/13 
f 144/228/13 151/243/13 162/244/13 
f 162/244/13 154/229/13 144/228/13 
f 141/240/13 143/227/13 155/230/13 
f 155/230/13 160/241/13 141/240/13 
f 152/239/13 161/242/13 158/236/13 
f 158/236/13 149/235/13 152/239/13 
f 163/245/27 164/246/27 165/247/27 
f 165/247/27 166/248/27 163/245/27 
f 164/246/30 167/249/30 168/250/30 
f 168/250/30 169/251/30 164/246/30 
f 170/252/37 171/253/37 172/254/37 
f 172/254/37 173/255/37 170/252/37 
f 174/256/29 175/257/29 176/258/29 
f 176/258/29 177/259/29 174/256/29 
f 178/260/7 179/260/7 173/260/7 
f 180/260/1 181/260/1 166/260/1 
f 182/261/38 183/262/38 170/252/38 
f 170/252/38 173/255/38 182/261/38 
f 166/248/39 184/263/39 185/264/39 
f 185/264/39 180/265/39 166/248/39 
f 165/247/40 186/266/40 184/263/40 
f 184/263/40 166/248/40 165/247/40 
f 177/259/41 187/267/41 188/268/41 
f 188/268/41 189/269/41 177/259/41 
f 173/255/42 172/254/42 190/270/42 
f 190/270/42 178/271/42 173/255/42 
f 176/258/43 191/272/43 187/267/43 
f 187/267/43 177/259/43 176/258/43 
f 192/273/44 190/270/44 193/274/44 
f 193/274/44 194/275/44 192/273/44 
f 179/276/38 182/261/38 173/255/38 
f 178/271/38 192/273/38 194/275/38 
f 194/275/38 195/277/38 178/271/38 
f 196/278/45 185/264/45 197/279/45 
f 197/279/45 198/280/45 196/278/45 
f 180/265/27 196/278/27 198/280/27 
f 198/280/27 169/251/27 180/265/27 
f 181/281/27 163/245/27 166/248/27 
f 189/269/29 199/282/29 200/283/29 
f 200/283/29 201/284/29 189/269/29 
f 202/285/29 174/256/29 177/259/29 
f 200/283/46 199/282/46 188/268/46 
f 188/268/46 203/286/46 200/283/46 
f 176/258/47 201/284/47 203/286/47 
f 203/286/47 191/272/47 176/258/47 
f 170/252/48 195/277/48 193/274/48 
f 193/274/48 171/253/48 170/252/48 
f 164/260/1 169/260/1 165/260/1 
f 183/260/14 195/260/14 170/260/14 
f 165/247/49 169/251/49 197/279/49 
f 197/279/49 186/266/49 165/247/49 
f 189/269/28 204/287/28 205/288/28 
f 205/288/28 202/285/28 189/269/28 
f 180/289/50 195/277/50 183/262/50 
f 183/262/50 181/290/50 180/289/50 
f 178/271/51 201/291/51 175/292/51 
f 175/292/51 179/276/51 178/271/51 
f 175/260/7 201/260/7 176/260/7 
f 172/254/38 171/253/38 193/274/38 
f 193/274/38 190/270/38 172/254/38 
f 184/263/27 186/266/27 197/279/27 
f 197/279/27 185/264/27 184/263/27 
f 187/267/29 191/272/29 203/286/29 
f 203/286/29 188/268/29 187/267/29 
f 206/293/3 207/294/3 208/295/3 
f 208/295/3 209/296/3 206/293/3 
f 210/297/52 211/298/52 212/299/52 
f 212/299/52 213/300/52 210/297/52 
f 214/301/4 215/302/4 216/303/4 
f 216/303/4 217/304/4 214/301/4 
f 206/305/53 218/306/53 219/307/53 
f 219/307/53 220/308/53 206/305/53 
f 221/309/53 222/310/53 215/311/53 
f 215/311/53 214/312/53 221/309/53 
f 220/308/53 219/307/53 222/310/53 
f 222/310/53 221/309/53 220/308/53 
f 223/313/3 224/314/3 225/315/3 
f 225/315/3 226/316/3 223/313/3 
f 225/317/54 224/318/54 227/319/54 
f 227/319/54 228/320/54 225/317/54 
f 207/321/52 229/322/52 230/323/52 
f 230/323/52 208/324/52 207/321/52 
f 229/322/52 210/297/52 213/300/52 
f 213/300/52 230/323/52 229/322/52 
f 213/325/54 225/317/54 228/320/54 
f 228/320/54 230/326/54 213/325/54 
f 230/326/54 228/320/54 209/327/54 
f 209/327/54 208/328/54 230/326/54 
f 229/329/53 220/308/53 221/309/53 
f 221/309/53 210/330/53 229/329/53 
f 210/330/53 221/309/53 214/312/53 
f 214/312/53 211/331/53 210/330/53 
f 207/332/53 206/305/53 220/308/53 
f 220/308/53 229/329/53 207/332/53 
f 212/333/54 217/334/54 225/317/54 
f 225/317/54 213/325/54 212/333/54 
f 211/335/4 214/301/4 217/304/4 
f 217/304/4 212/336/4 211/335/4 
f 218/337/3 206/293/3 209/296/3 
f 209/296/3 231/338/3 218/337/3 
f 217/339/55 232/340/55 226/341/55 
f 226/341/55 225/342/55 217/339/55 
f 233/343/6 232/344/6 217/304/6 
f 217/304/6 216/303/6 233/343/6 
f 228/345/55 234/346/55 235/347/55 
f 235/347/55 209/348/55 228/345/55 
f 236/349/3 231/338/3 209/296/3 
f 209/296/3 235/350/3 236/349/3 
f 237/313/6 234/316/6 228/315/6 
f 228/315/6 227/314/6 237/313/6 
f 238/293/7 239/294/7 240/295/7 
f 240/295/7 241/296/7 238/293/7 
f 242/297/56 243/298/56 244/299/56 
f 244/299/56 245/300/56 242/297/56 
f 246/301/1 247/302/1 248/303/1 
f 248/303/1 249/304/1 246/301/1 
f 238/305/57 250/306/57 251/307/57 
f 251/307/57 252/308/57 238/305/57 
f 253/309/57 254/310/57 247/311/57 
f 247/311/57 246/312/57 253/309/57 
f 252/308/57 251/307/57 254/310/57 
f 254/310/57 253/309/57 252/308/57 
f 255/313/7 256/314/7 257/315/7 
f 257/315/7 258/316/7 255/313/7 
f 257/317/58 256/318/58 259/319/58 
f 259/319/58 260/320/58 257/317/58 
f 239/321/56 261/322/56 262/323/56 
f 262/323/56 240/324/56 239/321/56 
f 261/322/56 242/297/56 245/300/56 
f 245/300/56 262/323/56 261/322/56 
f 245/325/58 257/317/58 260/320/58 
f 260/320/58 262/326/58 245/325/58 
f 262/326/58 260/320/58 241/327/58 
f 241/327/58 240/328/58 262/326/58 
f 261/329/57 252/308/57 253/309/57 
f 253/309/57 242/330/57 261/329/57 
f 242/330/57 253/309/57 246/312/57 
f 246/312/57 243/331/57 242/330/57 
f 239/332/57 238/305/57 252/308/57 
f 252/308/57 261/329/57 239/332/57 
f 244/333/58 249/334/58 257/317/58 
f 257/317/58 245/325/58 244/333/58 
f 243/335/1 246/301/1 249/304/1 
f 249/304/1 244/336/1 243/335/1 
f 250/337/7 238/293/7 241/296/7 
f 241/296/7 263/338/7 250/337/7 
f 249/339/59 264/340/59 258/341/59 
f 258/341/59 257/342/59 249/339/59 
f 265/343/1 264/344/1 249/304/1 
f 249/304/1 248/303/1 265/343/1 
f 260/345/59 266/346/59 267/347/59 
f 267/347/59 241/348/59 260/345/59 
f 268/349/7 263/338/7 241/296/7 
f 241/296/7 267/350/7 268/349/7 
f 269/313/1 266/316/1 260/315/1 
f 260/315/1 259/314/1 269/313/1 
f 270/351/4 271/352/4 272/353/4 
f 272/353/4 273/354/4 270/351/4 
f 274/355/3 275/356/3 276/357/3 
f 276/357/3 277/358/3 274/355/3 
f 278/359/60 279/360/60 280/361/60 
f 280/361/60 281/362/60 278/359/60 
f 270/363/61 282/364/61 283/365/61 
f 283/365/61 271/366/61 270/363/61 
f 284/367/7 285/368/7 286/369/7 
f 286/369/7 287/370/7 284/367/7 
f 284/367/7 288/371/7 289/372/7 
f 289/372/7 285/368/7 284/367/7 
f 276/373/62 288/374/62 284/375/62 
f 284/375/62 290/376/62 276/373/62 
f 281/362/60 286/377/60 285/378/60 
f 285/378/60 278/359/60 281/362/60 
f 290/379/63 284/380/63 287/381/63 
f 287/381/63 270/363/63 290/379/63 
f 291/382/3 292/383/3 293/384/3 
f 293/384/3 294/385/3 291/382/3 
f 282/386/4 295/387/4 296/388/4 
f 296/388/4 283/389/4 282/386/4 
f 282/386/4 297/390/4 298/391/4 
f 298/391/4 295/387/4 282/386/4 
f 293/384/3 299/392/3 300/393/3 
f 300/393/3 294/385/3 293/384/3 
f 287/370/7 286/369/7 298/394/7 
f 298/394/7 297/395/7 287/370/7 
f 276/373/64 294/396/64 300/397/64 
f 300/397/64 288/374/64 276/373/64 
f 288/371/7 300/398/7 299/399/7 
f 299/399/7 289/372/7 288/371/7 
f 281/362/65 295/400/65 298/401/65 
f 298/401/65 286/377/65 281/362/65 
f 276/373/64 275/402/64 291/403/64 
f 291/403/64 294/396/64 276/373/64 
f 281/362/65 280/361/65 296/404/65 
f 296/404/65 295/400/65 281/362/65 
f 287/381/61 297/405/61 282/364/61 
f 282/364/61 270/363/61 287/381/61 
f 301/406/7 302/407/7 303/408/7 
f 303/408/7 304/409/7 301/406/7 
f 305/410/7 270/411/7 273/412/7 
f 273/412/7 306/413/7 305/410/7 
f 277/414/7 276/415/7 307/416/7 
f 307/416/7 308/417/7 277/414/7 
f 307/416/7 305/410/7 306/413/7 
f 306/413/7 308/417/7 307/416/7 
f 309/418/7 310/419/7 311/420/7 
f 311/420/7 312/421/7 309/418/7 
f 310/419/7 302/407/7 301/406/7 
f 301/406/7 311/420/7 310/419/7 
f 276/415/7 312/421/7 311/420/7 
f 311/420/7 307/416/7 276/415/7 
f 301/406/7 304/409/7 270/411/7 
f 270/411/7 305/410/7 301/406/7 
f 307/416/7 311/420/7 301/406/7 
f 301/406/7 305/410/7 307/416/7 
f 313/422/66 279/423/66 278/424/66 
f 278/424/66 314/425/66 313/422/66 
f 289/426/67 299/427/67 293/428/67 
f 293/428/67 314/425/67 289/426/67 
f 278/424/66 285/429/66 289/426/66 
f 289/426/66 314/425/66 278/424/66 
f 314/425/67 293/428/67 292/430/67 
f 292/430/67 313/422/67 314/425/67 
f 315/431/68 316/432/68 317/433/68 
f 317/433/68 318/434/68 315/431/68 
f 319/435/69 317/436/69 316/437/69 
f 316/437/69 320/438/69 319/435/69 
f 321/439/70 322/440/70 323/441/70 
f 323/441/70 324/442/70 321/439/70 
f 322/443/71 321/444/71 325/445/71 
f 325/445/71 326/446/71 322/443/71 
f 320/447/72 326/448/72 325/449/72 
f 325/449/72 319/450/72 320/447/72 
f 318/451/73 324/452/73 323/453/73 
f 323/453/73 315/454/73 318/451/73 
f 316/455/4 322/456/4 326/457/4 
f 326/457/4 320/458/4 316/455/4 
f 319/459/3 325/460/3 321/461/3 
f 321/461/3 317/462/3 319/459/3 
f 317/462/3 321/461/3 324/463/3 
f 324/463/3 318/464/3 317/462/3 
f 315/465/4 323/466/4 322/456/4 
f 322/456/4 316/455/4 315/465/4 
# 478 faces

